{
    "type": "object",
    "properties" :
    {
        "j_external":
        {
            "type": "array",
            "items": { "type": "number" }
        },
        "j_internal":
        {
            "type": "number"
        },
        "delta_minus_x":
        {
            "type": "number"
        },
        "j_12":
        {
            "type": "number"
        },
        "j_43":
        {
            "type": "number"
        },
        "delta_12":
        {
            "type": "string"
        },
        "delta_43":
        {
            "type": "string"
        },
        "delta_1_plus_2":
        {
            "type": "string"
        },
        "four_pt_struct":
        {
            "type": "array",
            "items": { "type": "number" }
        },
        "four_pt_sign":
        {
            "type": "integer"
        },
        "order":
        {
            "type": "integer"
        },
        "lambda":
        {
            "type": "integer"
        },
        "kept_pole_order":
        {
            "type": "integer"
        },
        "coordinates":
        {
            "type": "array",
            "items": { "type": "string" }
        },
        "pole_list_x":
        {
            "type": "array",
            "items": { "type": "number" }
        },
        "precision_input":
        {
            "type": "integer"
        },
        "precision_actual":
        {
            "type": "integer"
        },
        "j_internal_input":
        {
            "type": "array",
            "items": { "type": "number" }
        },
        "output_template":
        {
            "type": "string"
        },
        "args":
        {
            "type": "string"
        },
        "index_values":
        {
            "type": "array",
            "items":
            {
                "type": "object",
                "properties" :
                {
                    "three_pt_parity_120":
                    {
                        "type": "integer"
                    },
                    "three_pt_parity_430":
                    {
                        "type": "integer"
                    },
                    "j_120":
                    {
                        "type": "array",
                        "items": { "type": "number" }
                    },
                    "j_430":
                    {
                        "type": "array",
                        "items": { "type": "number" }
                    },
                    "coordinates":
                    {
                        "type": "array",
                        "items": { "type": "string" }
                    }
                }
            }
        },
        "index_names":
        {
            "type": "array",
            "items": {"type": "string"}
        },
        "derivs":
        {
            "type": "array",
            "items":
            {
                "type": "array",
                "items":
                {
                    "type": "array",
                    "items":
                    {
                        "type": "array",
                        "items":
                        {
                            "type": "array",
                            "items":
                            {
                                "type": "array",
                                "items":
                                {
                                    "type": "array",
                                    "items":
                                    {
                                        "type": "string"
                                    }
                                }
                            }
                        }
                    }
                }
            }
        }
    }
}

            
            
